

a:0:{}

a:0:{}

a:4:{s:5:"_csrf";s:88:"d73aNIu6iAbJYlMsBKhLGGfMfWToaewVS8wSDBKbsUQV1ON4uvXqVf8SEENo-XhHEYgsO4Ac1Wx4jkd6XevBFw==";s:9:"Candidate";a:3:{s:4:"name";s:3:"123";s:9:"last_name";s:3:"123";s:5:"email";s:3:"123";}s:9:"Questions";a:34:{s:7:"form_39";s:3:"123";s:7:"form_34";s:6:"Angola";s:7:"form_33";s:10:"California";s:7:"form_32";s:3:"123";s:7:"form_31";s:3:"123";s:7:"form_35";s:3:"123";s:7:"form_36";s:16:"+1(123)123-12-31";s:7:"form_37";s:3:"yes";s:7:"form_38";s:10:"1231-23-12";s:6:"form_1";s:23:"Business Representative";s:6:"form_2";s:10:"1231-23-12";s:6:"form_3";s:19:"High School Diploma";s:6:"form_4";s:9:"Associate";s:6:"form_5";s:3:"Yes";s:6:"form_6";s:3:"123";s:6:"form_7";s:3:"123";s:6:"form_8";s:10:"1231-23-12";s:6:"form_9";s:10:"1231-23-12";s:7:"form_10";s:6:"123123";s:7:"form_11";s:0:"";s:7:"form_12";s:0:"";s:7:"form_13";s:0:"";s:7:"form_15";s:3:"123";s:7:"form_17";s:3:"123";s:7:"form_18";s:16:"+1(123)123-12-31";s:7:"form_19";s:6:"123123";s:7:"form_22";s:0:"";s:7:"form_27";s:0:"";s:7:"form_23";s:0:"";s:7:"form_24";s:0:"";s:7:"form_25";s:0:"";s:7:"form_40";s:0:"";s:7:"form_28";s:0:"";s:7:"form_29";s:0:"";}s:22:"CandidateInterviewTime";a:5:{i:0;a:2:{s:4:"time";s:12:"9am — 12pm";s:8:"week_day";s:3:"MON";}i:1;a:2:{s:4:"time";s:3:"—";s:8:"week_day";s:3:"TUE";}i:2;a:2:{s:4:"time";s:3:"—";s:8:"week_day";s:3:"WED";}i:3;a:2:{s:4:"time";s:3:"—";s:8:"week_day";s:3:"THU";}i:4;a:2:{s:4:"time";s:3:"—";s:8:"week_day";s:3:"FRI";}}}

a:4:{s:5:"_csrf";s:88:"1PLStUaBzJksQj6wzL0aPOgdmqVbS9Fkv-ekf8ldlgi2m-v5d86uyhoyfd-g7CljnlnL-jM-6B2MpfEJhi3mWw==";s:9:"Candidate";a:3:{s:4:"name";s:3:"123";s:9:"last_name";s:3:"123";s:5:"email";s:11:"123@1123.ru";}s:9:"Questions";a:34:{s:7:"form_39";s:3:"123";s:7:"form_34";s:7:"Algeria";s:7:"form_33";s:8:"Arkansas";s:7:"form_32";s:3:"123";s:7:"form_31";s:3:"123";s:7:"form_35";s:3:"123";s:7:"form_36";s:16:"+1(123)123-12-31";s:7:"form_37";s:3:"yes";s:7:"form_38";s:10:"1231-23-12";s:6:"form_1";s:23:"Business Representative";s:6:"form_2";s:10:"1231-23-12";s:6:"form_3";s:19:"High School Diploma";s:6:"form_4";s:9:"Associate";s:6:"form_5";s:3:"Yes";s:6:"form_6";s:3:"123";s:6:"form_7";s:3:"123";s:6:"form_8";s:10:"1231-23-12";s:6:"form_9";s:10:"1231-23-12";s:7:"form_10";s:0:"";s:7:"form_11";s:0:"";s:7:"form_12";s:0:"";s:7:"form_13";s:0:"";s:7:"form_15";s:3:"123";s:7:"form_17";s:3:"123";s:7:"form_18";s:16:"+1(123)123-12-31";s:7:"form_19";s:6:"123123";s:7:"form_22";s:0:"";s:7:"form_27";s:0:"";s:7:"form_23";s:0:"";s:7:"form_24";s:0:"";s:7:"form_25";s:0:"";s:7:"form_40";s:0:"";s:7:"form_28";s:0:"";s:7:"form_29";s:0:"";}s:22:"CandidateInterviewTime";a:5:{i:0;a:2:{s:4:"time";s:12:"9am — 12pm";s:8:"week_day";s:3:"MON";}i:1;a:2:{s:4:"time";s:3:"—";s:8:"week_day";s:3:"TUE";}i:2;a:2:{s:4:"time";s:3:"—";s:8:"week_day";s:3:"WED";}i:3;a:2:{s:4:"time";s:3:"—";s:8:"week_day";s:3:"THU";}i:4;a:2:{s:4:"time";s:3:"—";s:8:"week_day";s:3:"FRI";}}}